#title "TIC-80 (Lua-) Dateien in Geany"
#prevp "202206bild16"
#nextp "202206bild18"

<%= html.getLink(imageref("geanytic80"), "https://www.flickr.com/photos/schockwellenreiter/52146803034/") %>

Screenshot, mehr [hier](Erste Schritte mit TIC-80 – 20220614) …