#title "Tranz Am (1983)"
#prevp "202110bild16"
#nextp "202110bild18"

<%= html.getLink(imageref("tranzam"), "https://www.raspberrypi.com/news/code-a-tranz-am-style-top-down-racer-wireframe-55/") %>

Screenshot, mehr [hier](Code the Classics: Tranz Am (1938) – 20211018) …