#title "nb: Note Taking für die Kommandozeile"
#prevp "202209bild15"
#nextp "202209bild17"

<%= html.getLink(imageref("nb"), "https://camo.githubusercontent.com/5e4c7a494718a8884cd5efd6833a1dda5e6f6e20706c6cef2c2fb8c89695c5eb/68747470733a2f2f78776d782e6769746875622e696f2f6d6973632f6e622f696d616765732f6775692d6775692d7465726d696e616c2d62726f7773652e706e67") %>

Screenshot, mehr [hier](Neu in meinem Wiki: nb – 20220910) …