#title "Die Mediadaten für den Monat August 2022"
#prevp "202208bild44"
#nextp "202209bild02"

<%= html.getLink(imageref("mediadaten202208"), "https://www.flickr.com/photos/schockwellenreiter/52326956970/") %>

Screenshot, mehr [hier](Die Zahlen für den Monat August 2022 – 20220901) …