#title "Ball, Sofa und Spitz"
#prevp "202101bild32"
#nextp "202101bild34"

<%= html.getLink(imageref("ballsofaspitz"), "https://www.flickr.com/photos/schockwellenreiter/50822042142/") %>

Aufgenommen am 4. Januar 2021. *[[photogabi]]*