#title "Dezember 2020"
#maintitle "Archiv Dezember 2020"
#prevp "November 2020"
#nextp "http://blog.schockwellenreiter.de/2021/202101.html"
#monatsuebersicht "<li><a href='http://blog.schockwellenreiter.de/2020/12/2020123101.html'>31.&nbsp;Dezember&nbsp;2020</a></li><li><a href='http://blog.schockwellenreiter.de/2020/12/2020123001.html'>30.&nbsp;Dezember&nbsp;2020</a></li><li><a href='http://blog.schockwellenreiter.de/2020/12/2020122901.html'>29.&nbsp;Dezember&nbsp;2020</a></li><li><a href='http://blog.schockwellenreiter.de/2020/12/2020122801.html'>28.&nbsp;Dezember&nbsp;2020</a></li><li><a href='http://blog.schockwellenreiter.de/2020/12/2020122601.html'>26.&nbsp;Dezember&nbsp;2020</a></li><li><a href='http://blog.schockwellenreiter.de/2020/12/2020122501.html'>25.&nbsp;Dezember&nbsp;2020</a></li><li><a href='http://blog.schockwellenreiter.de/2020/12/2020122401.html'>24.&nbsp;Dezember&nbsp;2020</a></li><li><a href='http://blog.schockwellenreiter.de/2020/12/2020122301.html'>23.&nbsp;Dezember&nbsp;2020</a></li><li><a href='http://blog.schockwellenreiter.de/2020/12/2020122201.html'>22.&nbsp;Dezember&nbsp;2020</a></li><li><a href='http://blog.schockwellenreiter.de/2020/12/2020122101.html'>21.&nbsp;Dezember&nbsp;2020</a></li><li><a href='http://blog.schockwellenreiter.de/2020/12/2020122001.html'>20.&nbsp;Dezember&nbsp;2020</a></li><li><a href='http://blog.schockwellenreiter.de/2020/12/2020121901.html'>19.&nbsp;Dezember&nbsp;2020</a></li><li><a href='http://blog.schockwellenreiter.de/2020/12/2020121801.html'>18.&nbsp;Dezember&nbsp;2020</a></li><li><a href='http://blog.schockwellenreiter.de/2020/12/2020121701.html'>17.&nbsp;Dezember&nbsp;2020</a></li><li><a href='http://blog.schockwellenreiter.de/2020/12/2020121601.html'>16.&nbsp;Dezember&nbsp;2020</a></li><li><a href='http://blog.schockwellenreiter.de/2020/12/2020121501.html'>15.&nbsp;Dezember&nbsp;2020</a></li><li><a href='http://blog.schockwellenreiter.de/2020/12/2020121401.html'>14.&nbsp;Dezember&nbsp;2020</a></li><li><a href='http://blog.schockwellenreiter.de/2020/12/2020121301.html'>13.&nbsp;Dezember&nbsp;2020</a></li><li><a href='http://blog.schockwellenreiter.de/2020/12/2020121101.html'>11.&nbsp;Dezember&nbsp;2020</a></li><li><a href='http://blog.schockwellenreiter.de/2020/12/2020121001.html'>10.&nbsp;Dezember&nbsp;2020</a></li><li><a href='http://blog.schockwellenreiter.de/2020/12/2020120901.html'>9.&nbsp;Dezember&nbsp;2020</a></li><li><a href='http://blog.schockwellenreiter.de/2020/12/2020120801.html'>8.&nbsp;Dezember&nbsp;2020</a></li><li><a href='http://blog.schockwellenreiter.de/2020/12/2020120701.html'>7.&nbsp;Dezember&nbsp;2020</a></li><li><a href='http://blog.schockwellenreiter.de/2020/12/2020120601.html'>6.&nbsp;Dezember&nbsp;2020</a></li><li><a href='http://blog.schockwellenreiter.de/2020/12/2020120501.html'>5.&nbsp;Dezember&nbsp;2020</a></li><li><a href='http://blog.schockwellenreiter.de/2020/12/2020120401.html'>4.&nbsp;Dezember&nbsp;2020</a></li><li><a href='http://blog.schockwellenreiter.de/2020/12/2020120301.html'>3.&nbsp;Dezember&nbsp;2020</a></li><li><a href='http://blog.schockwellenreiter.de/2020/12/2020120201.html'>2.&nbsp;Dezember&nbsp;2020</a></li><li><a href='http://blog.schockwellenreiter.de/2020/12/2020120101.html'>1.&nbsp;Dezember&nbsp;2020</a></li>"

## <%= maintitle %>

---

<%= readrssarchiv(year, "202012") %>

<%= html.getLink(imageref("brueghelvlaamsespreekworden-s"), "Vlaamse Spreekwoorden") %>