#title "Zum Mitnehmen"
#prevp "201905bild15"
#nextp "201905bild17"

<%= html.getLink(imageref("zummitnehmen"), "https://www.flickr.com/photos/schockwellenreiter/33952649058/") %>

Aufgenommen am 1. Mai 2019. *[[photogabi]]*
