#title "TIC-80: Beyond the Underground"
#prevp "202112bild07"
#nextp "202112bild09"

<%= html.getLink(imageref("beyondtheunderground"), "https://tic80.com/play?cart=2413") %>

Screenshot, mehr [hier](Neu in meinem Wiki: TIC-80 – 20211212) …