#title "Happy Pi Day 2021"
#prevp "202103bild14"
#nextp "202103bild16"

<%= html.getLink(imageref("happypiday"), "https://www.flickr.com/photos/schockwellenreiter/51035659201/") %>

Screenshot, mehr [hier](Happy Pi Day – 20210314) …