#title "Mad Heidi"
#prevp "202212bild04"
#nextp "202212bild06"

<%= html.getLink(imageref("madheidi"), "https://cdn.shopify.com/s/files/1/0004/9728/7233/files/Mad-Heidi_Official-Poster_web.jpg?v=1666531908") %>

Screenshot, mehr [hier](Friedliche Weihnachten mit »Mad Heidi« – 20221205) …