#title "Das Ende der Eislaufsaison 2019/2020"
#prevp "202005bild38"
#nextp "202005bild40"

<%= html.getLink(imageref("eislaufende"), "https://www.flickr.com/photos/schockwellenreiter/49878096562/") %>

Aufgenommen am 10. Mai 2020. *[[photojoerg]]*