#title "SystemSix"
#prevp "202204bild10"
#nextp "202204bild12"

<%= html.getLink(imageref("system6"), "https://www.reviewgeek.com/p/uploads/2022/04/812749e1.png") %>

Screenshot, mehr [hier](SystemSix: Eine Liebeserklärung an alte Macs – 20220407) …