#title "Piskel (für Pixelartisten)"
#prevp "202204bild29"
#nextp "202204bild31"

<%= html.getLink(imageref("piskel"), "https://www.flickr.com/photos/schockwellenreiter/52021535406/") %>

Screenshot, mehr [hier](Neu in meinem Wiki: Piskel – 20220422) …