#title "August 2021"
#maintitle "Archiv August 2021"
#prevp "Juli 2021"
#nextp "September 2021"
#monatsuebersicht "<li><a href='http://blog.schockwellenreiter.de/2021/08/2021083101.html'>31.&nbsp;August&nbsp;2021</a></li><li><a href='http://blog.schockwellenreiter.de/2021/08/2021083001.html'>30.&nbsp;August&nbsp;2021</a></li><li><a href='http://blog.schockwellenreiter.de/2021/08/2021082901.html'>29.&nbsp;August&nbsp;2021</a></li><li><a href='http://blog.schockwellenreiter.de/2021/08/2021082701.html'>27.&nbsp;August&nbsp;2021</a></li><li><a href='http://blog.schockwellenreiter.de/2021/08/2021082301.html'>23.&nbsp;August&nbsp;2021</a></li><li><a href='http://blog.schockwellenreiter.de/2021/08/2021082201.html'>22.&nbsp;August&nbsp;2021</a></li><li><a href='http://blog.schockwellenreiter.de/2021/08/2021082001.html'>20.&nbsp;August&nbsp;2021</a></li><li><a href='http://blog.schockwellenreiter.de/2021/08/2021081801.html'>18.&nbsp;August&nbsp;2021</a></li><li><a href='http://blog.schockwellenreiter.de/2021/08/2021081701.html'>17.&nbsp;August&nbsp;2021</a></li><li><a href='http://blog.schockwellenreiter.de/2021/08/2021081601.html'>16.&nbsp;August&nbsp;2021</a></li><li><a href='http://blog.schockwellenreiter.de/2021/08/2021081501.html'>15.&nbsp;August&nbsp;2021</a></li><li><a href='http://blog.schockwellenreiter.de/2021/08/2021081401.html'>14.&nbsp;August&nbsp;2021</a></li><li><a href='http://blog.schockwellenreiter.de/2021/08/2021081301.html'>13.&nbsp;August&nbsp;2021</a></li><li><a href='http://blog.schockwellenreiter.de/2021/08/2021081201.html'>12.&nbsp;August&nbsp;2021</a></li><li><a href='http://blog.schockwellenreiter.de/2021/08/2021081101.html'>11.&nbsp;August&nbsp;2021</a></li><li><a href='http://blog.schockwellenreiter.de/2021/08/2021081001.html'>10.&nbsp;August&nbsp;2021</a></li><li><a href='http://blog.schockwellenreiter.de/2021/08/2021080801.html'>8.&nbsp;August&nbsp;2021</a></li><li><a href='http://blog.schockwellenreiter.de/2021/08/2021080701.html'>7.&nbsp;August&nbsp;2021</a></li><li><a href='http://blog.schockwellenreiter.de/2021/08/2021080601.html'>6.&nbsp;August&nbsp;2021</a></li><li><a href='http://blog.schockwellenreiter.de/2021/08/2021080501.html'>5.&nbsp;August&nbsp;2021</a></li><li><a href='http://blog.schockwellenreiter.de/2021/08/2021080401.html'>4.&nbsp;August&nbsp;2021</a></li><li><a href='http://blog.schockwellenreiter.de/2021/08/2021080301.html'>3.&nbsp;August&nbsp;2021</a></li><li><a href='http://blog.schockwellenreiter.de/2021/08/2021080201.html'>2.&nbsp;August&nbsp;2021</a></li><li><a href='http://blog.schockwellenreiter.de/2021/08/2021080101.html'>1.&nbsp;August&nbsp;2021</a></li>"

## <%= maintitle %>

---

<%= readrssarchiv(year, "202108") %>

<%= html.getLink(imageref("peterpanhouse-s"), "Peter Pan: Hausbau") %>