#title "Til Eulenspiegel (1938)"
#prevp "wtrierbild04"
#nextp "wtrierbild06"

<%= html.getLink(imageref("eulenspiegel"), "https://www.flickr.com/photos/8725928@N02/9067163473/") %>

*Walter Trier*, Til Eulenspiegel, 1938