#title "Schwarz-Gelb"
#prevp "201906bild11"
#nextp "201906bild13"

<%= html.getLink(imageref("schwarzgelb"), "https://www.flickr.com/photos/schockwellenreiter/48034342082/") %>

Aufgenommen am 9. Juni 2019. *[[photogabi]]*