#title "TIC-80 auf meinem Chromebook"
#prevp "202207bild35"
#nextp "202208bild01"

<%= html.getLink(imageref("chromebooktic80"), "https://www.flickr.com/photos/schockwellenreiter/52251810785/") %>

Screenshot, mehr [hier](TIC-80 auf (m)einem Chromebook – 20220730) …