#title "Bal Populaire zur Schnapszahl"
#prevp "202207bild15"
#nextp "202207bild17"

<%= html.getLink(imageref("balpopulaire1989schnapszahl"), "https://www.facebook.com/photo?fbid=421092789984&set=a.159436864984") %>

*(Photo © 1989: Christina Schultz)*