#title "Das SIR-Modell in Maxima"
#prevp "202003bild34"
#nextp "202003bild36"

<%= html.getLink(imageref("sirmaxima"), "https://www.flickr.com/photos/schockwellenreiter/49701950696/") %>

Screenshot, mehr [hier](Das SIR-Modell in (wx-) Maxima – 20200327)  …