#title "Pillow im Test"
#prevp "202004bild12"
#nextp "202004bild14"

<%= html.getLink(imageref("pillowtest"), "https://www.flickr.com/photos/schockwellenreiter/49746496327/") %>

Screenshot, mehr [hier](PIL, Pillow und (Anaconda-) Python – 20200407) …