#title "Uber-wohnt?"
#prevp "201910bild14"
#nextp "201910bild16"

<%= html.getLink(imageref("uberwohnt"), "https://www.flickr.com/photos/schockwellenreiter/48842324671/") %>

Aufgenommen am 4. Oktober 2019. *[[photojoerg]]*