#title "PageBot"
#prevp "202203bild12"
#nextp "202203bild14"

<%= html.getLink(imageref("pagebot"), "https://www.youtube.com/watch?v=h5h6NXC8ZoY") %>

Screenshot, mehr [hier](Noch einmal Drawbot (und PageBot) – 20220312) …