#title "Catch the Digits of Pi"
#prevp "202203bild15"
#nextp "202203bild17"

<%= html.getLink(imageref("piday2022"), "https://www.youtube.com/watch?v=_H9JIwWP7HQ") %>

Screenshot, mehr [hier](Happy Pi Day 2022 – 20220315) …