#title "September 2019"
#maintitle "Archiv September 2019"
#prevp "201908"
#nextp "201910"
#monatsuebersicht "<li><a href='http://blog.schockwellenreiter.de/2019/09/2019093001.html'>30.&nbsp;September&nbsp;2019</a></li><li><a href='http://blog.schockwellenreiter.de/2019/09/2019092801.html'>28.&nbsp;September&nbsp;2019</a></li><li><a href='http://blog.schockwellenreiter.de/2019/09/2019092701.html'>27.&nbsp;September&nbsp;2019</a></li><li><a href='http://blog.schockwellenreiter.de/2019/09/2019092601.html'>26.&nbsp;September&nbsp;2019</a></li><li><a href='http://blog.schockwellenreiter.de/2019/09/2019092501.html'>25.&nbsp;September&nbsp;2019</a></li><li><a href='http://blog.schockwellenreiter.de/2019/09/2019092401.html'>24.&nbsp;September&nbsp;2019</a></li><li><a href='http://blog.schockwellenreiter.de/2019/09/2019092001.html'>20.&nbsp;September&nbsp;2019</a></li><li><a href='http://blog.schockwellenreiter.de/2019/09/2019091901.html'>19.&nbsp;September&nbsp;2019</a></li><li><a href='http://blog.schockwellenreiter.de/2019/09/2019091801.html'>18.&nbsp;September&nbsp;2019</a></li><li><a href='http://blog.schockwellenreiter.de/2019/09/2019091701.html'>17.&nbsp;September&nbsp;2019</a></li><li><a href='http://blog.schockwellenreiter.de/2019/09/2019091601.html'>16.&nbsp;September&nbsp;2019</a></li><li><a href='http://blog.schockwellenreiter.de/2019/09/2019091501.html'>15.&nbsp;September&nbsp;2019</a></li><li><a href='http://blog.schockwellenreiter.de/2019/09/2019091301.html'>13.&nbsp;September&nbsp;2019</a></li><li><a href='http://blog.schockwellenreiter.de/2019/09/2019091201.html'>12.&nbsp;September&nbsp;2019</a></li><li><a href='http://blog.schockwellenreiter.de/2019/09/2019091101.html'>11.&nbsp;September&nbsp;2019</a></li><li><a href='http://blog.schockwellenreiter.de/2019/09/2019091001.html'>10.&nbsp;September&nbsp;2019</a></li><li><a href='http://blog.schockwellenreiter.de/2019/09/2019090901.html'>9.&nbsp;September&nbsp;2019</a></li><li><a href='http://blog.schockwellenreiter.de/2019/09/2019090701.html'>7.&nbsp;September&nbsp;2019</a></li><li><a href='http://blog.schockwellenreiter.de/2019/09/2019090601.html'>6.&nbsp;September&nbsp;2019</a></li><li><a href='http://blog.schockwellenreiter.de/2019/09/2019090501.html'>5.&nbsp;September&nbsp;2019</a></li><li><a href='http://blog.schockwellenreiter.de/2019/09/2019090401.html'>4.&nbsp;September&nbsp;2019</a></li><li><a href='http://blog.schockwellenreiter.de/2019/09/2019090301.html'>3.&nbsp;September&nbsp;2019</a></li><li><a href='http://blog.schockwellenreiter.de/2019/09/2019090201.html'>2.&nbsp;September&nbsp;2019</a></li>"


## <%= maintitle %>

---

<%= readrssarchiv(year, "201909") %>

<%= html.getLink(imageref("lange-beine-b"), "Nach meene Beene is ja janz Balin varrückt") %>
