#title "Die Zahlen für den Monat Oktober 2022"
#prevp "202210bild67"
#nextp "202211bild02"

<%= html.getLink(imageref("mediadaten202210"), "https://www.flickr.com/photos/schockwellenreiter/52470295506/") %>

Screenshot, mehr [hier](Die Zahlen für den Monat Oktober 2022 – 20221101) …