#title "Titus hat einen neuen Ball"
#prevp "202111bild02"
#nextp "202111bild04"

<%= html.getLink(imageref("titusneuerball"), "https://www.facebook.com/photo/?fbid=5275855172429729&set=a.1268046659877287") %>

Aufgenommen am 12. November 2021. *[[photogabi]]*